-------------------------------------
outlook_add_in log started
version: 33.0.16.0
-------------------------------------
2019-10-09T19:27:23.390ZI [9428] instrumentation.cc:107:OpenLogFileInDirectory Logging to C:\Users\usuario\AppData\Local\Google\DriveFS\Logs\outlook_add_in.txt
2019-10-09T19:27:23.547ZE [9708] shell_ipc_client.cc:87:Connect Can't connect to socket at: \\.\Pipe\GoogleDriveFSPipe_usuario_shell
2019-10-09T19:27:23.548ZI [6372] connect.cc:1089:Initialize Failed to do GetLocale UNKNOWN_STATUS.
2019-10-09T19:27:23.548ZI [6372] connect.cc:526:OnConnection Starting outlook Add-In ...
2019-10-09T19:27:23.670ZI [6372] connect.cc:455:RecordOutlookVersion Outlook version: 16.0.0.4266.
2019-10-09T19:27:23.670ZE [9708] shell_ipc_client.cc:87:Connect Can't connect to socket at: \\.\Pipe\GoogleDriveFSPipe_usuario_shell
2019-10-09T19:27:23.670ZE [6372] connect.cc:468:RecordOutlookVersion Failed to record Outlook version, status: UNKNOWN_STATUS.
2019-10-09T19:27:23.670ZE [9708] shell_ipc_client.cc:87:Connect Can't connect to socket at: \\.\Pipe\GoogleDriveFSPipe_usuario_shell
2019-10-09T19:27:23.670ZE [6372] connect.cc:397:MaybeShowOnboarding Failed to display onboarding window UNKNOWN_STATUS
2019-10-09T20:29:15.260ZE [9708] shell_ipc_client.cc:87:Connect Can't connect to socket at: \\.\Pipe\GoogleDriveFSPipe_usuario_shell
2019-10-15T20:07:37.967ZE [9708] shell_ipc_client.cc:87:Connect Can't connect to socket at: \\.\Pipe\GoogleDriveFSPipe_usuario_shell
2019-10-15T20:07:37.989ZE [6372] common.cc:339:ShouldInsertAsLinkBasedOnAttachmentSize Failed to GetOutlookAttachmentSizeThresholdMBytes: UNKNOWN_STATUS
2019-10-15T20:07:37.989ZE [9708] shell_ipc_client.cc:87:Connect Can't connect to socket at: \\.\Pipe\GoogleDriveFSPipe_usuario_shell
2019-10-15T20:07:39.550ZE [9708] shell_ipc_client.cc:87:Connect Can't connect to socket at: \\.\Pipe\GoogleDriveFSPipe_usuario_shell
2019-10-15T20:07:39.550ZE [6372] common.cc:339:ShouldInsertAsLinkBasedOnAttachmentSize Failed to GetOutlookAttachmentSizeThresholdMBytes: UNKNOWN_STATUS
2019-10-15T20:07:39.550ZE [9708] shell_ipc_client.cc:87:Connect Can't connect to socket at: \\.\Pipe\GoogleDriveFSPipe_usuario_shell
2019-10-15T20:08:14.841ZE [9708] shell_ipc_client.cc:87:Connect Can't connect to socket at: \\.\Pipe\GoogleDriveFSPipe_usuario_shell
2019-10-15T20:58:48.448ZE [9708] shell_ipc_client.cc:87:Connect Can't connect to socket at: \\.\Pipe\GoogleDriveFSPipe_usuario_shell
2019-10-15T22:50:40.709ZE [9708] shell_ipc_client.cc:87:Connect Can't connect to socket at: \\.\Pipe\GoogleDriveFSPipe_usuario_shell
2019-10-16T13:40:14.171ZE [9708] shell_ipc_client.cc:87:Connect Can't connect to socket at: \\.\Pipe\GoogleDriveFSPipe_usuario_shell
2019-10-16T13:40:14.171ZE [6372] common.cc:339:ShouldInsertAsLinkBasedOnAttachmentSize Failed to GetOutlookAttachmentSizeThresholdMBytes: UNKNOWN_STATUS
2019-10-16T13:40:14.171ZE [9708] shell_ipc_client.cc:87:Connect Can't connect to socket at: \\.\Pipe\GoogleDriveFSPipe_usuario_shell
2019-10-16T13:42:59.688ZE [9708] shell_ipc_client.cc:87:Connect Can't connect to socket at: \\.\Pipe\GoogleDriveFSPipe_usuario_shell
2019-10-16T15:05:20.395ZE [9708] shell_ipc_client.cc:87:Connect Can't connect to socket at: \\.\Pipe\GoogleDriveFSPipe_usuario_shell
2019-10-16T15:05:20.395ZE [6372] common.cc:339:ShouldInsertAsLinkBasedOnAttachmentSize Failed to GetOutlookAttachmentSizeThresholdMBytes: UNKNOWN_STATUS
2019-10-16T15:05:20.395ZE [9708] shell_ipc_client.cc:87:Connect Can't connect to socket at: \\.\Pipe\GoogleDriveFSPipe_usuario_shell
2019-10-16T15:06:12.733ZE [9708] shell_ipc_client.cc:87:Connect Can't connect to socket at: \\.\Pipe\GoogleDriveFSPipe_usuario_shell
2019-10-16T15:33:07.007ZE [9708] shell_ipc_client.cc:87:Connect Can't connect to socket at: \\.\Pipe\GoogleDriveFSPipe_usuario_shell
2019-10-16T15:33:07.007ZE [6372] common.cc:339:ShouldInsertAsLinkBasedOnAttachmentSize Failed to GetOutlookAttachmentSizeThresholdMBytes: UNKNOWN_STATUS
2019-10-16T15:33:07.007ZE [9708] shell_ipc_client.cc:87:Connect Can't connect to socket at: \\.\Pipe\GoogleDriveFSPipe_usuario_shell
2019-10-16T15:35:09.996ZE [9708] shell_ipc_client.cc:87:Connect Can't connect to socket at: \\.\Pipe\GoogleDriveFSPipe_usuario_shell
2019-10-16T19:54:15.261ZE [9708] shell_ipc_client.cc:87:Connect Can't connect to socket at: \\.\Pipe\GoogleDriveFSPipe_usuario_shell
