[
    {
        "fuente": "Caracterización",
        "anexo_mostrar": "DOC-CRT-001 Caracterización de Procesos Dirección de Docencia",
        "anexo": "./assets/data/3_Docencia/Caracterización/DOC-CRT-001 Caracterización de Procesos Dirección de Docencia.pdf",
        "fuente_hijos": []
    },
    {
        "fuente": "Procedimientos",
        "fuente_hijos": [
            {
                "hijo_nombre": "DOC-PRO-001 Procedimiento para solicitud de puntos por producción académica",
                "anexo": "./assets/data/3_Docencia/Procedimientos/DOC-PRO-001 Procedimiento para solicitud de puntos por producción académica.pdf",
                "formatos": [
                    {
                        "hijo_nombre": "DOC-FOR-002 Solicitud de puntos convención 2011-2014",
                        "anexo": "./assets/data/3_Docencia/Formatos/DOC-FOR-002 Solicitud de puntos convención 2011-2014.pdf"
                    },
                    {
                        "hijo_nombre": "DOC-FOR-003 Solicitud de puntos convención 2015-2018",
                        "anexo": "./assets/data/3_Docencia/Formatos/DOC-FOR-003 Solicitud de puntos convención 2015-2018.pdf"
                    },
                    {
                        "hijo_nombre": "DOC-FOR-004 Solicitud de puntos convención 2019-2022",
                        "anexo": "./assets/data/3_Docencia/Formatos/DOC-FOR-004 Solicitud de puntos convención 2019-2022.pdf"
                    }
                ]
            },
            {
                "hijo_nombre": "DOC-PRO-002 Procedimiento para la presentación de compromisos académicos",
                "anexo": "./assets/data/3_Docencia/Procedimientos/DOC-PRO-002 Procedimiento para la presentación de compromisos académicos.pdf",
                "formatos": [
                    {
                        "hijo_nombre": "DOC-FOR-005 Concertación de compromisos académicos",
                        "anexo": "./assets/data/3_Docencia/Formatos/DOC-FOR-005 Concertación de compromisos académicos.pdf"
                    },
                    {
                        "hijo_nombre": "DOC-FOR-006 Formato acta de entrega de compromisos académicos",
                        "anexo": "./assets/data/3_Docencia/Formatos/DOC-FOR-006 Formato acta de entrega de compromisos académicos.pdf"
                    }
                ]
            },
            {
                "hijo_nombre": "DOC-PRO-003 Procedimiento para la evaluación docente",
                "anexo": "./assets/data/3_Docencia/Procedimientos/DOC-PRO-003 Procedimiento para la evaluación docente.pdf",
                "formatos": []
            }
        ]
    },
    {
        "fuente": "Instructivos",
        "fuente_hijos": [
            {
                "hijo_nombre": "DOC-INS-001 Instructivo para administrador plan de vida académico",
                "anexo": "./assets/data/3_Docencia/Instructivos/DOC-INS-001 Instructivo para administrador plan de vida académico.pdf",
                "formatos": []
            },
            {
                "hijo_nombre": "DOC-INS-002 Instructivo creación de personas plan de vida académico",
                "anexo": "./assets/data/3_Docencia/Instructivos/DOC-INS-002 Instructivo creación de personas plan de vida académico.pdf",
                "formatos": []
            },
            {
                "hijo_nombre": "DOC-INS-003 Instructivo para la evaluación docencia",
                "anexo": "./assets/data/3_Docencia/Instructivos/DOC-INS-003 Instructivo para la evaluación docencia.pdf",
                "formatos": []
            },
            {
                "hijo_nombre": "DOC-INS-004 Instructivo para la solicitud de creación de contrato",
                "anexo": "./assets/data/3_Docencia/Instructivos/DOC-INS-004 Instructivo para la solicitud de creación de contrato.pdf",
                "formatos": []
            },
            {
                "hijo_nombre": "DOC-INS-005 Instructivo para solicitud de puntos por producción académica",
                "anexo": "./assets/data/3_Docencia/Instructivos/DOC-INS-005 Instructivo para solicitud de puntos por producción académica.pdf",
                "formatos": []
            }
        ]
    },
    {
        "fuente": "Formatos",
        "fuente_hijos": [
            {
                "hijo_nombre": "DOC-FOR-001 Acta",
                "anexo": "./assets/data/3_Docencia/Formatos/DOC-FOR-001 Acta.pdf"
            },
            {
                "hijo_nombre": "DOC-FOR-002 Solicitud de puntos convención 2011-2014",
                "anexo": "./assets/data/3_Docencia/Formatos/DOC-FOR-002 Solicitud de puntos convención 2011-2014.pdf"
            },
            {
                "hijo_nombre": "DOC-FOR-003 Solicitud de puntos convención 2015-2018",
                "anexo": "./assets/data/3_Docencia/Formatos/DOC-FOR-003 Solicitud de puntos convención 2015-2018.pdf"
            },
            {
                "hijo_nombre": "DOC-FOR-004 Solicitud de puntos convención 2019-2022",
                "anexo": "./assets/data/3_Docencia/Formatos/DOC-FOR-004 Solicitud de puntos convención 2019-2022.pdf"
            },
            {
                "hijo_nombre": "DOC-FOR-005 Concertación de compromisos académicos",
                "anexo": "./assets/data/3_Docencia/Formatos/DOC-FOR-005 Concertación de compromisos académicos.pdf"
            },
            {
                "hijo_nombre": "DOC-FOR-006 Formato acta de entrega de compromisos académicos",
                "anexo": "./assets/data/3_Docencia/Formatos/DOC-FOR-006 Formato acta de entrega de compromisos académicos.pdf"
            },
            {
                "hijo_nombre": "DOC-FOR-007 Formato salidas académicas estudiantiles",
                "anexo": "./assets/data/3_Docencia/Formatos/DOC-FOR-007 Formato salidas académicas estudiantiles.pdf"
            },
            {
                "hijo_nombre": "DOC-FOR-008 Formato apoyo económico participación eventos",
                "anexo": "./assets/data/3_Docencia/Formatos/DOC-FOR-008 Formato apoyo económico participación eventos.pdf"
            },
            {
                "hijo_nombre": "DOC-FOR-009 Formato autorización para modificación de horarios",
                "anexo": "./assets/data/3_Docencia/Formatos/DOC-FOR-009 Formato autorización para modificación de horarios.pdf"
            }
        ]
    },
    {
        "fuente": "Indicadores",
        "fuente_hijos": [],
        "anios": [
            "2014",
            "2015",
            "2016",
            "2017",
            "2018",
            "2019-I",
            "2019"
        ],
        "indicadores": [
            {
                "nombre_indicador": "Evolución planta docente según dedicación",
                "aMedicionUnica": [],
                "aMediciones": [
                    {
                        "nombre_indicador": "Número de profesores catedráticos",
                        "valores": [
                            "Número de profesores catedráticos",
                            205,
                            281,
                            294,
                            313,
                            300,
                            0
                        ],
                        "metas": [
                            0,
                            0,
                            0,
                            0,
                            0,
                            0
                        ]
                    },
                    {
                        "nombre_indicador": "Número de profesores de medio tiempo",
                        "valores": [
                            "Número de profesores de medio tiempo",
                            94,
                            87,
                            81,
                            90,
                            88,
                            0
                        ],
                        "metas": [
                            0,
                            0,
                            0,
                            0,
                            0,
                            0
                        ]
                    },
                    {
                        "nombre_indicador": "Número de profesores de tiempo completo",
                        "valores": [
                            "Número de profesores de tiempo completo",
                            118,
                            114,
                            125,
                            140,
                            146,
                            0
                        ],
                        "metas": [
                            0,
                            0,
                            0,
                            0,
                            0,
                            0
                        ]
                    }
                ]
            },
            {
                "nombre_indicador": "Evolución planta docente según escalafón",
                "aMedicionUnica": [],
                "aMediciones": [
                    {
                        "nombre_indicador": "Número de instructores asistentes",
                        "valores": [
                            "Número de instructores asistentes",
                            170,
                            237,
                            243,
                            290,
                            281,
                            0
                        ],
                        "metas": [
                            0,
                            0,
                            0,
                            0,
                            0,
                            0
                        ]
                    },
                    {
                        "nombre_indicador": "Número de instructores asociados",
                        "valores": [
                            "Número de instructores asociados",
                            88,
                            94,
                            90,
                            96,
                            88,
                            0
                        ],
                        "metas": [
                            0,
                            0,
                            0,
                            0,
                            0,
                            0
                        ]
                    },
                    {
                        "nombre_indicador": "Número de profesores asistentes",
                        "valores": [
                            "Número de profesores asistentes",
                            37,
                            37,
                            45,
                            40,
                            46,
                            0
                        ],
                        "metas": [
                            0,
                            0,
                            0,
                            0,
                            0,
                            0
                        ]
                    },
                    {
                        "nombre_indicador": "Número de profesores asociados",
                        "valores": [
                            "Número de profesores asociados",
                            60,
                            56,
                            57,
                            59,
                            60,
                            0
                        ],
                        "metas": [
                            0,
                            0,
                            0,
                            0,
                            0,
                            0
                        ]
                    },
                    {
                        "nombre_indicador": "Número de profesores titulares",
                        "valores": [
                            "Número de profesores titulares",
                            47,
                            44,
                            44,
                            48,
                            53,
                            0
                        ],
                        "metas": [
                            0,
                            0,
                            0,
                            0,
                            0,
                            0
                        ]
                    },
                    {
                        "nombre_indicador": "Número de directivos",
                        "valores": [
                            "Número de directivos",
                            5,
                            7,
                            8,
                            8,
                            6,
                            0
                        ],
                        "metas": [
                            0,
                            0,
                            0,
                            0,
                            0,
                            0
                        ]
                    },
                    {
                        "nombre_indicador": "Número de profesores especiales",
                        "valores": [
                            "Número de profesores especiales",
                            10,
                            7,
                            13,
                            2,
                            0,
                            0
                        ],
                        "metas": [
                            0,
                            0,
                            0,
                            0,
                            0,
                            0
                        ]
                    }
                ]
            },
            {
                "nombre_indicador": "Evolución de la planta profesoral según nivel de formación",
                "aMedicionUnica": [],
                "aMediciones": [
                    {
                        "nombre_indicador": "Número de profesores con pregrado",
                        "valores": [
                            "Número de profesores con pregrado",
                            87,
                            113,
                            132,
                            124,
                            112,
                            0
                        ],
                        "metas": [
                            0,
                            0,
                            0,
                            0,
                            0,
                            0
                        ]
                    },
                    {
                        "nombre_indicador": "Número de profesores especialistas",
                        "valores": [
                            "Número de profesores especialistas",
                            94,
                            94,
                            82,
                            97,
                            106,
                            0
                        ],
                        "metas": [
                            0,
                            0,
                            0,
                            0,
                            0,
                            0
                        ]
                    },
                    {
                        "nombre_indicador": "Número de profesores magister",
                        "valores": [
                            "Número de profesores magister",
                            199,
                            230,
                            233,
                            264,
                            252,
                            0
                        ],
                        "metas": [
                            0,
                            0,
                            0,
                            0,
                            0,
                            0
                        ]
                    },
                    {
                        "nombre_indicador": "Número de profesores doctores",
                        "valores": [
                            "Número de profesores doctores",
                            34,
                            44,
                            53,
                            57,
                            63,
                            0
                        ],
                        "metas": [
                            0,
                            0,
                            0,
                            0,
                            0,
                            0
                        ]
                    }
                ]
            }
        ]
    },
    {
        "fuente": "Matriz de Riesgos",
        "fuente_hijos": [
            {
                "hijo_nombre": "GCA-FOR-014 Matriz de Riesgos Docencia",
                "anexo": "./assets/data/3_Docencia/Caracterización/GCA-FOR-014 Matriz de Riesgos Docencia.pdf"
            }
        ]
    },
    {
        "fuente": "Matriz de Comunicaciones",
        "fuente_hijos": [],
        "anexo_mostrar": [
            "DOC-MAT-002 Matriz de comunicaciones Docencia"
        ],
        "anexo": "./assets/data/3_Docencia/Caracterización/DOC-MAT-002 Matriz de comunicaciones Docencia.pdf"
    },
    {
        "fuente": "Matriz de Indicadores",
        "fuente_hijos": [],
        "anexo_mostrar": [
            "DOC-MAT-001 Indicadores del proceso Dirección Docencia"
        ],
        "anexo": "./assets/data/3_Docencia/Caracterización/DOC-MAT-001 Indicadores del proceso Dirección Docencia.pdf"
    }
]