[
    {
        "fuente": "Caracterización",
        "anexo_mostrar": "GFI-CRT-001 Caracterización proceso financiero",
        "anexo": "./assets/data/9_Financiera/Caracterización/GFI-CRT-001 Caracterización proceso financiero.pdf",
        "fuente_hijos": []
    },
    {
        "fuente": "Procedimientos",
        "fuente_hijos": [
            {
                "hijo_nombre": "GFI-PRO-001 Procedimiento Cartera y Financiacion de Matricula.pdf",
                "anexo": "./assets/data/9_Financiera/Procedimientos/GFI-PRO-001 Procedimiento Cartera y Financiacion de Matricula.pdf",
                "formatos": [
                    {
                        "hijo_nombre": "GFI-FOR-003 Devoluciones",
                        "anexo": "./assets/data/9_Financiera/Formatos/GFI-FOR-003 Devoluciones.pdf"
                    },
                    {
                        "hijo_nombre": "GFI-FOR-004 Saldos a Favor",
                        "anexo": "./assets/data/9_Financiera/Formatos/GFI-FOR-004 Saldos a Favor.pdf"
                    },
                    {
                        "hijo_nombre": "GFI-FOR-005 Formulario de Financiación",
                        "anexo": "./assets/data/9_Financiera/Formatos/GFI-FOR-005 Formulario de Financiación.pdf"
                    }
                ]
            },
            {
                "hijo_nombre": "GFI-PRO-002 Procedimiento Adquisición Bienes y Servicios",
                "anexo": "./assets/data/9_Financiera/Procedimientos/GFI-PRO-002 Procedimiento Adquisición Bienes y Servicios.pdf",
                "formatos": [
                    {
                        "hijo_nombre": "GFI-FOR-018 Pedido Interno de Almacén",
                        "anexo": "./assets/data/9_Financiera/Formatos/GFI-FOR-018 Pedido Interno de Almacén.pdf"
                    },
                    {
                        "hijo_nombre": "GFI-FOR-022 Cuadro Comparativo de Precios",
                        "anexo": "./assets/data/9_Financiera/Formatos/GFI-FOR-022 Cuadro Comparativo de Precios.pdf"
                    },
                    {
                        "hijo_nombre": "GFI-FOR-023 Entrega de insumos",
                        "anexo": "./assets/data/9_Financiera/Formatos/GFI-FOR-023 Entrega de insumos.pdf"
                    },
                    {
                        "hijo_nombre": "GFI-FOR-024 Orden de compra",
                        "anexo": "./assets/data/9_Financiera/Formatos/GFI-FOR-024 Orden de compra.pdf"
                    },
                    {
                        "hijo_nombre": "GFI-FOR-026 Solicitud Elemento de Almacén",
                        "anexo": "./assets/data/9_Financiera/Formatos/GFI-FOR-026 Solicitud Elemento de Almacén.pdf"
                    }
                ]
            }
        ]
    },
    {
        "fuente": "Instructivos",
        "fuente_hijos": [
            {
                "hijo_nombre": "GFI-INS-001 Instructivo Anticipos",
                "anexo": "./assets/data/9_Financiera/Instructivos/GFI-INS-001 Instructivo Anticipos.pdf",
                "formatos": [
                    {
                        "hijo_nombre": "GFI-FOR-001 Legalización Anticipo",
                        "anexo": "./assets/data/9_Financiera/Formatos/GFI-FOR-001 Legalización Anticipo.pdf"
                    },
                    {
                        "hijo_nombre": "GFI-FOR-002 Pagos menores",
                        "anexo": "./assets/data/9_Financiera/Formatos/GFI-FOR-002 Pagos menores.pdf"
                    }
                ]
            },
            {
                "hijo_nombre": "GFI-INS-002 Instructivo Conciliaciones Bancarias",
                "anexo": "./assets/data/9_Financiera/Instructivos/GFI-INS-002 Instructivo Conciliaciones Bancarias.pdf",
                "formatos": [
                    {
                        "hijo_nombre": "GFI-FOR-006 Conciliaciones cuentas bancarias",
                        "anexo": "./assets/data/9_Financiera/Formatos/GFI-FOR-006 Conciliaciones cuentas bancarias.pdf"
                    },
                    {
                        "hijo_nombre": "GFI-FOR-007 Resumen cuentas conciliación",
                        "anexo": "./assets/data/9_Financiera/Formatos/GFI-FOR-007 Resumen cuentas conciliación.pdf"
                    }
                ]
            },
            {
                "hijo_nombre": "GFI-INS-003 Instructivo Secretaria Dirección Financiera",
                "anexo": "./assets/data/9_Financiera/Instructivos/GFI-INS-003 Instructivo Secretaria Dirección Financiera.pdf",
                "formatos": [
                    {
                        "hijo_nombre": "GFI-FOR-003 Devoluciones",
                        "anexo": "./assets/data/9_Financiera/Formatos/GFI-FOR-003 Devoluciones.pdf"
                    },
                    {
                        "hijo_nombre": "GFI-FOR-004 Saldos a Favor",
                        "anexo": "./assets/data/9_Financiera/Formatos/GFI-FOR-004 Saldos a Favor.pdf"
                    },
                    {
                        "hijo_nombre": "GFI-FOR-020 Certificado de Pagos por Educación",
                        "anexo": "./assets/data/9_Financiera/Formatos/GFI-FOR-020 Certificado de Pagos por Educación.pdf"
                    }
                ]
            },
            {
                "hijo_nombre": "GFI-INS-004 Instructivo Tesoreria",
                "anexo": "./assets/data/9_Financiera/Instructivos/GFI-INS-004 Instructivo Tesoreria.pdf",
                "formatos": []
            },
            {
                "hijo_nombre": "GFI-INS-005 Instructivo Facturación Servicios",
                "anexo": "./assets/data/9_Financiera/Instructivos/GFI-INS-005 Instructivo Facturación Servicios.pdf",
                "formatos": [
                    {
                        "hijo_nombre": "GFI-FOR-008 Solicitud factura",
                        "anexo": "./assets/data/9_Financiera/Formatos/GFI-FOR-008 Solicitud factura.pdf"
                    },
                    {
                        "hijo_nombre": "GFI-FOR-021 Indice Contratos",
                        "anexo": "./assets/data/9_Financiera/Formatos/GFI-FOR-021 Indice Contratos.pdf"
                    }
                ]
            },
            {
                "hijo_nombre": "GFI-INS-006 Instructivo Icetex",
                "anexo": "./assets/data/9_Financiera/Instructivos/GFI-INS-006 Instructivo Icetex.pdf",
                "formatos": []
            },
            {
                "hijo_nombre": "GFI-INS-007 Evaluación de Proveedores",
                "anexo": "./assets/data/9_Financiera/Instructivos/GFI-INS-007 Evaluación de Proveedores.pdf",
                "formatos": [
                    {
                        "hijo_nombre": "GFI-FOR-025 Formato Evaluación de Proveedores",
                        "anexo": "./assets/data/9_Financiera/Formatos/GFI-FOR-025 Formato Evaluación de Proveedores.pdf"
                    }
                ]
            },
            {
                "hijo_nombre": "GFI-INS-008 Instructivo Causación",
                "anexo": "./assets/data/9_Financiera/Instructivos/GFI-INS-008 Instructivo Causación.pdf",
                "formatos": []
            },
            {
                "hijo_nombre": "GFI-INS-009 Instructivo Caja Menor",
                "anexo": "./assets/data/9_Financiera/Instructivos/GFI-INS-009 Instructivo Caja Menor.pdf",
                "formatos": [
                    {
                        "hijo_nombre": "GFI-FOR-027 Reintegro de caja menor",
                        "anexo": "./assets/data/9_Financiera/Formatos/GFI-FOR-027 Reintegro de caja menor.pdf"
                    }
                ]
            }
        ]
    },
    {
        "fuente": "Formatos",
        "fuente_hijos": [
            {
                "hijo_nombre": "GFI-FOR-001 Legalización Anticipo",
                "anexo": "./assets/data/9_Financiera/Formatos/GFI-FOR-001 Legalización Anticipo.pdf"
            },
            {
                "hijo_nombre": "GFI-FOR-002 Pagos menores",
                "anexo": "./assets/data/9_Financiera/Formatos/GFI-FOR-002 Pagos menores.pdf"
            },
            {
                "hijo_nombre": "GFI-FOR-003 Devoluciones",
                "anexo": "./assets/data/9_Financiera/Formatos/GFI-FOR-003 Devoluciones.pdf"
            },
            {
                "hijo_nombre": "GFI-FOR-004 Saldos a Favor",
                "anexo": "./assets/data/9_Financiera/Formatos/GFI-FOR-004 Saldos a Favor.pdf"
            },
            {
                "hijo_nombre": "GFI-FOR-005 Formulario de Financiación",
                "anexo": "./assets/data/9_Financiera/Formatos/GFI-FOR-005 Formulario de Financiación.pdf"
            },
            {
                "hijo_nombre": "GFI-FOR-006 Conciliaciones cuentas bancarias",
                "anexo": "./assets/data/9_Financiera/Formatos/GFI-FOR-006 Conciliaciones cuentas bancarias.pdf"
            },
            {
                "hijo_nombre": "GFI-FOR-007 Resumen cuentas conciliación",
                "anexo": "./assets/data/9_Financiera/Formatos/GFI-FOR-007 Resumen cuentas conciliación.pdf"
            },
            {
                "hijo_nombre": "GFI-FOR-008 Solicitud factura",
                "anexo": "./assets/data/9_Financiera/Formatos/GFI-FOR-008 Solicitud factura.pdf"
            },
            {
                "hijo_nombre": "GFI-FOR-009 Plan operativo",
                "anexo": "./assets/data/9_Financiera/Formatos/GFI-FOR-009 Plan operativo.pdf"
            },
            {
                "hijo_nombre": "GFI-FOR-010 Ppto Diplomados y seminarios",
                "anexo": "./assets/data/9_Financiera/Formatos/GFI-FOR-010 Ppto Diplomados y seminarios.pdf"
            },
            {
                "hijo_nombre": "GFI-FOR-011 Ppto Asesoria consultoria",
                "anexo": "./assets/data/9_Financiera/Formatos/GFI-FOR-011 Ppto Asesoria consultoria.pdf"
            },
            {
                "hijo_nombre": "GFI-FOR-012 Ppto posgrados",
                "anexo": "./assets/data/9_Financiera/Formatos/GFI-FOR-012 Ppto posgrados.pdf"
            },
            {
                "hijo_nombre": "GFI-FOR-013 Ppto Pregrado Depto",
                "anexo": "./assets/data/9_Financiera/Formatos/GFI-FOR-013 Ppto Pregrado Depto.pdf"
            },
            {
                "hijo_nombre": "GFI-FOR-014 Ppto Proyectos investigación",
                "anexo": "./assets/data/9_Financiera/Formatos/GFI-FOR-014 Ppto Proyectos investigación.pdf"
            },
            {
                "hijo_nombre": "GFI-FOR-015 Ppto Admin gestión",
                "anexo": "./assets/data/9_Financiera/Formatos/GFI-FOR-015 Ppto Admin gestión.pdf"
            },
            {
                "hijo_nombre": "GFI-FOR-016 Ppto Capacitación y formación",
                "anexo": "./assets/data/9_Financiera/Formatos/GFI-FOR-016 Ppto Capacitación y formación.pdf"
            },
            {
                "hijo_nombre": "GFI-FOR-018 Pedido Interno de Almacén",
                "anexo": "./assets/data/9_Financiera/Formatos/GFI-FOR-018 Pedido Interno de Almacén.pdf"
            },
            {
                "hijo_nombre": "GFI-FOR-019 Hoja de Ruta del Indicador",
                "anexo": "./assets/data/9_Financiera/Formatos/GFI-FOR-019 Hoja de Ruta del Indicador.pdf"
            },
            {
                "hijo_nombre": "GFI-FOR-020 Certificado de Pagos por Educación",
                "anexo": "./assets/data/9_Financiera/Formatos/GFI-FOR-020 Certificado de Pagos por Educación.pdf"
            },
            {
                "hijo_nombre": "GFI-FOR-021 Indice Contratos",
                "anexo": "./assets/data/9_Financiera/Formatos/GFI-FOR-021 Indice Contratos.pdf"
            },
            {
                "hijo_nombre": "GFI-FOR-022 Cuadro Comparativo de Precios",
                "anexo": "./assets/data/9_Financiera/Formatos/GFI-FOR-022 Cuadro Comparativo de Precios.pdf"
            },
            {
                "hijo_nombre": "GFI-FOR-023 Entrega de insumos",
                "anexo": "./assets/data/9_Financiera/Formatos/GFI-FOR-023 Entrega de insumos.pdf"
            },
            {
                "hijo_nombre": "GFI-FOR-024 Orden de compra",
                "anexo": "./assets/data/9_Financiera/Formatos/GFI-FOR-024 Orden de compra.pdf"
            },
            {
                "hijo_nombre": "GFI-FOR-025 Formato Evaluación de Proveedores",
                "anexo": "./assets/data/9_Financiera/Formatos/GFI-FOR-025 Formato Evaluación de Proveedores.pdf"
            },
            {
                "hijo_nombre": "GFI-FOR-026 Solicitud Elemento de Almacén",
                "anexo": "./assets/data/9_Financiera/Formatos/GFI-FOR-026 Solicitud Elemento de Almacén.pdf"
            },
            {
                "hijo_nombre": "GFI-FOR-027 Reintegro de caja menor",
                "anexo": "./assets/data/9_Financiera/Formatos/GFI-FOR-027 Reintegro de caja menor.pdf"
            },
            {
                "hijo_nombre": "GFI-FOR-028 Deducción retención salarios",
                "anexo": "./assets/data/9_Financiera/Formatos/GFI-FOR-028 Deducción retención salarios.pdf"
            },
            {
                "hijo_nombre": "GFI-FOR-029 Certificado Aprobación Presupuestal",
                "anexo": "./assets/data/9_Financiera/Formatos/GFI-FOR-029 Certificado Aprobación Presupuestal.pdf"
            },
            {
                "hijo_nombre": "GFI-FOR-030 Registro de Proveedores",
                "anexo": "./assets/data/9_Financiera/Formatos/GFI-FOR-030 Registro de Proveedores.pdf"
            }
        ]
    },
    {
        "fuente": "Indicadores",
        "fuente_hijos": [],
        "anios": [
            "2014",
            "2015",
            "2016",
            "2017",
            "2018"
        ],
        "indicadores": []
    },
    {
        "fuente": "Matriz de Riesgos",
        "fuente_hijos": [
            {
                "hijo_nombre": "GCA-FOR-014 Matriz de Riesgos - Bienes y Servicios",
                "anexo": "./assets/data/9_Financiera/Caracterización/GCA-FOR-014 Matriz de Riesgos - Bienes y Servicios.pdf"
            },
            {
                "hijo_nombre": "GCA-FOR-014 Matriz de Riesgos - Gestion financiera",
                "anexo": "./assets/data/9_Financiera/Caracterización/GCA-FOR-014 Matriz de Riesgos - Gestion financiera.pdf"
            }
        ]
    },
    {
        "fuente": "Matriz de Comunicaciones",
        "fuente_hijos": [],
        "anexo_mostrar": [
            "GFI-MAT-002 Matriz de comunicaciones Gestión Financiera"
        ],
        "anexo": "./assets/data/9_Financiera/Caracterización/GFI-MAT-002 Matriz de comunicaciones Gestión Financiera.pdf"
    },
    {
        "fuente": "Matriz de Indicadores",
        "fuente_hijos": [],
        "anexo_mostrar": [
            "GFI-MAT-006 Matriz de indicadores Gestión Financiera"
        ],
        "anexo": "./assets/data/9_Financiera/Caracterización/GFI-MAT-006 Matriz de indicadores Gestión Financiera.pdf"
    }
]