[
    {
        "fuente": "Caracterización",
        "anexo_mostrar": "INF-CRT-001 Caracterización de Procesos de Infraestructura",
        "anexo": "./assets/data/7_Infraestructura/Caracterización/INF-CRT-001 Caracterización de Procesos de Infraestructura.pdf",
        "fuente_hijos": []
    },
    {
        "fuente": "Procedimientos",
        "fuente_hijos": [
            {
                "hijo_nombre": "INF-PRO-001 Procedimiento para el mantenimiento preventivo",
                "anexo": "./assets/data/7_Infraestructura/Procedimientos/INF-PRO-001 Procedimiento para el mantenimiento preventivo.pdf",
                "formatos": [
                    {
                        "hijo_nombre": "INF-FOR-004 Registro de hallazgos para mantenimiento",
                        "anexo": "./assets/data/7_Infraestructura/Formatos/INF-FOR-004 Registro de hallazgos para mantenimiento.pdf"
                    },
                    {
                        "hijo_nombre": "INF-FOR-005 Mantenimiento preventivo",
                        "anexo": "./assets/data/7_Infraestructura/Formatos/INF-FOR-005 Mantenimiento preventivo.pdf"
                    },
                    {
                        "hijo_nombre": "INF-FOR-008 Hoja de vida del equipo",
                        "anexo": "./assets/data/7_Infraestructura/Formatos/INF-FOR-008 Hoja de vida del equipo.pdf"
                    }
                ]
            },
            {
                "hijo_nombre": "INF-PRO-002 Procedimiento para el mantenimiento correctivo",
                "anexo": "./assets/data/7_Infraestructura/Procedimientos/INF-PRO-002 Procedimiento para el mantenimiento correctivo.pdf",
                "formatos": [
                    {
                        "hijo_nombre": "INF-FOR-006 Registro de solicitudes de mantenimiento correctivo",
                        "anexo": "./assets/data/7_Infraestructura/Formatos/INF-FOR-006 Registro de solicitudes de mantenimiento correctivo.pdf"
                    },
                    {
                        "hijo_nombre": "INF-FOR-007 Mantenimiento correctivo",
                        "anexo": "./assets/data/7_Infraestructura/Formatos/INF-FOR-007 Mantenimiento correctivo.pdf"
                    },
                    {
                        "hijo_nombre": "INF-FOR-008 Hoja de vida del equipo",
                        "anexo": "./assets/data/7_Infraestructura/Formatos/INF-FOR-008 Hoja de vida del equipo.pdf"
                    }
                ]
            },
            {
                "hijo_nombre": "INF-PRO-003 Procedimiento para la gestión de proyectos",
                "anexo": "./assets/data/7_Infraestructura/Procedimientos/INF-PRO-003 Procedimiento para la gestión de proyectos.pdf",
                "formatos": []
            }
        ]
    },
    {
        "fuente": "Instructivos",
        "fuente_hijos": []
    },
    {
        "fuente": "Formatos",
        "fuente_hijos": [
            {
                "hijo_nombre": "INF-FOR-004 Registro de hallazgos para mantenimiento",
                "anexo": "./assets/data/7_Infraestructura/Formatos/INF-FOR-004 Registro de hallazgos para mantenimiento.pdf"
            },
            {
                "hijo_nombre": "INF-FOR-005 Mantenimiento preventivo",
                "anexo": "./assets/data/7_Infraestructura/Formatos/INF-FOR-005 Mantenimiento preventivo.pdf"
            },
            {
                "hijo_nombre": "INF-FOR-006 Registro de solicitudes de mantenimiento correctivo",
                "anexo": "./assets/data/7_Infraestructura/Formatos/INF-FOR-006 Registro de solicitudes de mantenimiento correctivo.pdf"
            },
            {
                "hijo_nombre": "INF-FOR-007 Mantenimiento correctivo",
                "anexo": "./assets/data/7_Infraestructura/Formatos/INF-FOR-007 Mantenimiento correctivo.pdf"
            },
            {
                "hijo_nombre": "INF-FOR-008 Hoja de vida del equipo",
                "anexo": "./assets/data/7_Infraestructura/Formatos/INF-FOR-008 Hoja de vida del equipo.pdf"
            }
        ]
    },
    {
        "fuente": "Indicadores",
        "fuente_hijos": [],
        "anios": [
            "2014",
            "2015",
            "2016",
            "2017",
            "2018",
            "2019-I"
        ],
        "indicadores": [
            {
                "nombre_indicador": "Evolución del área en metros cuadrados remodelados",
                "aMedicionUnica": [
                    "Evolución del área en metros cuadrados remodelados",
                    140887,
                    47563,
                    991974,
                    308441,
                    71972,
                    920
                ],
                "aMediciones": [],
                "metas": [
                    0,
                    0,
                    0,
                    0,
                    0,
                    0
                ]
            },
            {
                "nombre_indicador": "Inversiones en remodelaciones y mantenimiento$",
                "aMedicionUnica": [
                    "Inversiones en remodelaciones y mantenimiento$",
                    549000000,
                    404840680,
                    623907750,
                    1178162398,
                    1115394732,
                    711893733
                ],
                "aMediciones": [],
                "metas": [
                    0,
                    0,
                    0,
                    0,
                    0,
                    0
                ]
            }
        ]
    },
    {
        "fuente": "Matriz de Riesgos",
        "fuente_hijos": [
            {
                "hijo_nombre": "GCA-FOR-014 Matriz de Riesgos Infraestructura",
                "anexo": "./assets/data/7_Infraestructura/Caracterización/GCA-FOR-014 Matriz de Riesgos Infraestructura.pdf"
            }
        ]
    },
    {
        "fuente": "Matriz de Comunicaciones",
        "fuente_hijos": [],
        "anexo_mostrar": [
            "INF-MAT-002 Matriz de comunicaciones Infraestructura"
        ],
        "anexo": "./assets/data/7_Infraestructura/Caracterización/INF-MAT-002 Matriz de comunicaciones Infraestructura.pdf"
    },
    {
        "fuente": "Matriz de Indicadores",
        "fuente_hijos": [],
        "anexo_mostrar": [
            "INF-MAT-001 Indicadores del proceso Infraestructura"
        ],
        "anexo": "./assets/data/7_Infraestructura/Caracterización/INF-MAT-001 Indicadores del proceso Infraestructura.pdf"
    }
]