[
    {
        "fuente": "Caracterización",
        "anexo_mostrar": "PSO-CRT-001 Caracterización de procesos de Proyección Social",
        "anexo": "./assets/data/5_Proyección Social/Caracterización/PSO-CRT-001 Caracterización de procesos de Proyección Social.pdf",
        "fuente_hijos": []
    },
    {
        "fuente": "Procedimientos",
        "fuente_hijos": [
            {
                "hijo_nombre": "PSO-PRO-001 Procedimiento para la adquisición y ejecución de convenios y_o contratos de asesoría y consultoría - desarrollo social",
                "anexo": "./assets/data/5_Proyección Social/Procedimientos/PPSO-PRO-001 Procedimiento para la adquisición y ejecución de convenios y_o contratos de asesoría y consultoría - desarrollo social.pdf",
                "formatos": [
                    {
                        "hijo_nombre": "PSO-FOR-008 Presentación de convenios y_o proyectos de asesoría - desarrollo social",
                        "anexo": "./assets/data/5_Proyección Social/Formatos/PSO-FOR-008 Presentación de convenios y_o proyectos de asesoría - desarrollo social.pdf"
                    }
                ]
            },
            {
                "hijo_nombre": "PSO-PRO-002 Procedimiento de Intermediación Laboral",
                "anexo": "./assets/data/5_Proyección Social/Procedimientos/PSO-PRO-002 Procedimiento de Intermediación Laboral.pdf",
                "formatos": []
            },
            {
                "hijo_nombre": "PSO-PRO-003 Procedimiento para la Gestión de Graduados",
                "anexo": "./assets/data/5_Proyección Social/Procedimientos/PSO-PRO-003 Procedimiento para la Gestión de Graduados.pdf",
                "formatos": [
                    {
                        "hijo_nombre": "PSO-FOR-002 Instrumento de empleabilidad para graduado",
                        "anexo": "./assets/data/5_Proyección Social/Formatos/PSO-FOR-002 Instrumento de empleabilidad para graduado.pdf"
                    },
                    {
                        "hijo_nombre": "PSO-FOR-003 Instrumento de empleabilidad para empleador",
                        "anexo": "./assets/data/5_Proyección Social/Formatos/PSO-FOR-003 Instrumento de empleabilidad para empleador.pdf"
                    },
                    {
                        "hijo_nombre": "PSO-FOR-005 Instrumento de salida",
                        "anexo": "./assets/data/5_Proyección Social/Formatos/PSO-FOR-005 Instrumento de salida.pdf"
                    }
                ]
            },
            {
                "hijo_nombre": "PSO-PRO-004 Procedimiento para la pre e incubación de empresas",
                "anexo": "./assets/data/5_Proyección Social/Procedimientos/PSO-PRO-004 Procedimiento para la pre e incubación de empresas.pdf",
                "formatos": [
                    {
                        "hijo_nombre": "PSO-FOR-017 Formato de evaluación de satisfacción preincubación",
                        "anexo": "./assets/data/5_Proyección Social/Formatos/PSO-FOR-017 Formato de evaluación de satisfacción preincubación.pdf"
                    },
                    {
                        "hijo_nombre": "PSO-FOR-018 Formato de evaluación de satisfacción Incubación",
                        "anexo": "./assets/data/5_Proyección Social/Formatos/PSO-FOR-018 Formato de evaluación de satisfacción Incubación.pdf"
                    }
                ]
            },
            {
                "hijo_nombre": "PSO-PRO-005 Procedimiento para la oferta y ejecución de programas de educación continuada",
                "anexo": "./assets/data/5_Proyección Social/Procedimientos/PSO-PRO-005 Procedimiento para la oferta y ejecución de programas de educación continuada.pdf",
                "formatos": [
                    {
                        "hijo_nombre": "PSO-FOR-009 Propuesta de formación",
                        "anexo": "./assets/data/5_Proyección Social/Formatos/PSO-FOR-009 Propuesta de formación.pdf"
                    },
                    {
                        "hijo_nombre": "PSO-FOR-010 Evaluación del proceso de formación",
                        "anexo": "./assets/data/5_Proyección Social/Formatos/PSO-FOR-010 Evaluación del proceso de formación.pdf"
                    }
                ]
            },
            {
                "hijo_nombre": "PSO-PRO-006 Procedimiento para la gestión de prácticas sociales estudiantiles",
                "anexo": "./assets/data/5_Proyección Social/Procedimientos/PSO-PRO-006 Procedimiento para la gestión de prácticas sociales estudiantiles.pdf",
                "formatos": [
                    {
                        "hijo_nombre": "PSO-FOR-011 Acta de compromiso ético",
                        "anexo": "./assets/data/5_Proyección Social/Formatos/PSO-FOR-011 Acta de compromiso ético.pdf"
                    },
                    {
                        "hijo_nombre": "PSO-FOR-012 Acta de acompañamiento",
                        "anexo": "./assets/data/5_Proyección Social/Formatos/PSO-FOR-012 Acta de acompañamiento.pdf"
                    },
                    {
                        "hijo_nombre": "PSO-FOR-013 Plan de trabajo prácticas estudiantiles",
                        "anexo": "./assets/data/5_Proyección Social/Formatos/PSO-FOR-013 Plan de trabajo prácticas estudiantiles.pdf"
                    },
                    {
                        "hijo_nombre": "PSO-FOR-014 Evaluación de la práctica por parte de la empresa",
                        "anexo": "./assets/data/5_Proyección Social/Formatos/PSO-FOR-014 Evaluación de la práctica por parte de la empresa.pdf"
                    },
                    {
                        "hijo_nombre": "PSO-FOR-015 Informe final de prácticas estudiantiles",
                        "anexo": "./assets/data/5_Proyección Social/Formatos/PSO-FOR-015 Informe final de prácticas estudiantiles.pdf"
                    },
                    {
                        "hijo_nombre": "PSO-FOR-016 Evaluación de tutores de práctica",
                        "anexo": "./assets/data/5_Proyección Social/Formatos/PSO-FOR-016 Evaluación de tutores de práctica.pdf"
                    }
                ]
            }
        ]
    },
    {
        "fuente": "Instructivos",
        "fuente_hijos": [
            {
                "hijo_nombre": "PSO-INS-001 Instructivo para Carnetización",
                "anexo": "./assets/data/5_Proyección Social/Instructivos/PSO-INS-001 Instructivo para Carnetización.pdf",
                "formatos": []
            },
            {
                "hijo_nombre": "PSO-INS-002 Instructivo para la Administracion del Portal de Empleo",
                "anexo": "./assets/data/5_Proyección Social/Instructivos/PSO-INS-002 Instructivo para la Administracion del Portal de Empleo.pdf",
                "formatos": []
            },
            {
                "hijo_nombre": "PSO-INS-003 Instructivo para la pre e inscripción en programas de educación continuada",
                "anexo": "./assets/data/5_Proyección Social/Instructivos/PSO-INS-003 Instructivo para la pre e inscripción en programas de educación continuada.pdf",
                "formatos": []
            }
        ]
    },
    {
        "fuente": "Formatos",
        "fuente_hijos": [
            {
                "hijo_nombre": "PSO-FOR-002 Instrumento de empleabilidad para graduado",
                "anexo": "./assets/data/5_Proyección Social/Formatos/PSO-FOR-002 Instrumento de empleabilidad para graduado.pdf"
            },
            {
                "hijo_nombre": "PSO-FOR-003 Instrumento de empleabilidad para empleador",
                "anexo": "./assets/data/5_Proyección Social/Formatos/PSO-FOR-003 Instrumento de empleabilidad para empleador.pdf"
            },
            {
                "hijo_nombre": "PSO-FOR-005 Instrumento de salida",
                "anexo": "./assets/data/5_Proyección Social/Formatos/PSO-FOR-005 Instrumento de salida.pdf"
            },
            {
                "hijo_nombre": "PSO-FOR-008 Presentación de convenios y_o proyectos de asesoría - desarrollo social",
                "anexo": "./assets/data/5_Proyección Social/Formatos/PSO-FOR-008 Presentación de convenios y_o proyectos de asesoría - desarrollo social.pdf"
            },
            {
                "hijo_nombre": "PSO-FOR-009 Propuesta de formación",
                "anexo": "./assets/data/5_Proyección Social/Formatos/PSO-FOR-009 Propuesta de formación.pdf"
            },
            {
                "hijo_nombre": "PSO-FOR-010 Evaluación del proceso de formación",
                "anexo": "./assets/data/5_Proyección Social/Formatos/PSO-FOR-010 Evaluación del proceso de formación.pdf"
            },
            {
                "hijo_nombre": "PSO-FOR-011 Acta de compromiso ético",
                "anexo": "./assets/data/5_Proyección Social/Formatos/PSO-FOR-011 Acta de compromiso ético.pdf"
            },
            {
                "hijo_nombre": "PSO-FOR-012 Acta de acompañamiento",
                "anexo": "./assets/data/5_Proyección Social/Formatos/PSO-FOR-012 Acta de acompañamiento.pdf"
            },
            {
                "hijo_nombre": "PSO-FOR-013 Plan de trabajo prácticas estudiantiles",
                "anexo": "./assets/data/5_Proyección Social/Formatos/PSO-FOR-013 Plan de trabajo prácticas estudiantiles.pdf"
            },
            {
                "hijo_nombre": "PSO-FOR-014 Evaluación de la práctica por parte de la empresa",
                "anexo": "./assets/data/5_Proyección Social/Formatos/PSO-FOR-014 Evaluación de la práctica por parte de la empresa.pdf"
            },
            {
                "hijo_nombre": "PSO-FOR-015 Informe final de prácticas estudiantiles",
                "anexo": "./assets/data/5_Proyección Social/Formatos/PSO-FOR-015 Informe final de prácticas estudiantiles.pdf"
            },
            {
                "hijo_nombre": "PSO-FOR-016 Evaluación de tutores de práctica",
                "anexo": "./assets/data/5_Proyección Social/Formatos/PSO-FOR-016 Evaluación de tutores de práctica.pdf"
            },
            {
                "hijo_nombre": "PSO-FOR-017 Formato de evaluación de satisfacción preincubación",
                "anexo": "./assets/data/5_Proyección Social/Formatos/PSO-FOR-017 Formato de evaluación de satisfacción preincubación.pdf"
            },
            {
                "hijo_nombre": "PSO-FOR-018 Formato de evaluación de satisfacción Incubación",
                "anexo": "./assets/data/5_Proyección Social/Formatos/PSO-FOR-018 Formato de evaluación de satisfacción Incubación.pdf"
            }
        ]
    },
    {
        "fuente": "Indicadores",
        "fuente_hijos": [],
        "anios": [
            "2014",
            "2015",
            "2016",
            "2017",
            "2018"
        ],
        "indicadores": [
            {
                "nombre_indicador": "Contratos/convenios de asesoría y consultoría",
                "aMedicionUnica": [
                    "Contratos/convenios de asesoría y consultoría",
                    18,
                    15,
                    12
                ],
                "aMediciones": [],
                "metas": [
                    15,
                    13
                ]
            },
            {
                "nombre_indicador": "Valor contratado en asesoría y consultoría$",
                "aMedicionUnica": [
                    "Valor contratado en asesoría y consultoría$",
                    753200556,
                    2489512017,
                    476945240
                ],
                "aMediciones": [],
                "metas": [
                    942486210,
                    1038801887
                ]
            },
            {
                "nombre_indicador": "Contratos/convenios de desarrollo social",
                "aMedicionUnica": [
                    "Contratos/convenios de desarrollo social",
                    10,
                    11,
                    7
                ],
                "aMediciones": [],
                "metas": [
                    13,
                    16
                ]
            },
            {
                "nombre_indicador": "Población beneficiada desarrollo social",
                "aMedicionUnica": [
                    "Población beneficiada desarrollo social",
                    5231,
                    7741,
                    49000
                ],
                "aMediciones": [],
                "metas": [
                    7469,
                    57199
                ]
            },
            {
                "nombre_indicador": "Contratos/convenios de educación continuada",
                "aMedicionUnica": [
                    "Contratos/convenios de educación continuada",
                    9,
                    4,
                    2
                ],
                "aMediciones": [],
                "metas": [
                    5,
                    8
                ]
            },
            {
                "nombre_indicador": "Ingresos de educación continuada$",
                "aMedicionUnica": [
                    "Ingresos de educación continuada$",
                    315038861,
                    121290000,
                    521865343
                ],
                "aMediciones": [],
                "metas": [
                    266000000,
                    3531445950
                ]
            },
            {
                "nombre_indicador": "Total de prácticas",
                "aMedicionUnica": [
                    "Total de prácticas",
                    1455,
                    830,
                    923
                ],
                "aMediciones": [],
                "metas": [
                    1660,
                    1409
                ]
            },
            {
                "nombre_indicador": "Sensibilización emprendimiento",
                "aMedicionUnica": [
                    "Sensibilización emprendimiento",
                    9144,
                    9194,
                    1443
                ],
                "aMediciones": [],
                "metas": [
                    16794,
                    9100
                ]
            },
            {
                "nombre_indicador": "Formación de emprendedores",
                "aMedicionUnica": [
                    "Formación de emprendedores",
                    148,
                    5140,
                    3389
                ],
                "aMediciones": [],
                "metas": [
                    5386,
                    8235
                ]
            },
            {
                "nombre_indicador": "Base de datos de graduados actualizada",
                "aMedicionUnica": [
                    "Base de datos de graduados actualizada",
                    0,
                    0
                ],
                "aMediciones": [],
                "metas": [
                    0,
                    0,
                    0
                ]
            }
        ]
    },
    {
        "fuente": "Matriz de Riesgos",
        "fuente_hijos": [
            {
                "hijo_nombre": "GCA-FOR-014 Matriz de Riesgos Proyección Social",
                "anexo": "./assets/data/5_Proyección Social/Caracterización/GCA-FOR-014 Matriz de Riesgos Proyección Social.pdf"
            }
        ]
    },
    {
        "fuente": "Matriz de Comunicaciones",
        "fuente_hijos": [],
        "anexo_mostrar": [
            "PSO-MAT-002 Matriz de comunicaciones Proyección Social"
        ],
        "anexo": "./assets/data/5_Proyección Social/Caracterización/PSO-MAT-002 Matriz de comunicaciones Proyección Social.pdf"
    },
    {
        "fuente": "Matriz de Indicadores",
        "fuente_hijos": [],
        "anexo_mostrar": [
            "PSO-MAT-001 Matriz de Indicadores del proceso Proyección Social"
        ],
        "anexo": "./assets/data/5_Proyección Social/Caracterización/PSO-MAT-001 Matriz de Indicadores del proceso Proyección Social.pdf"
    }
]