-------------------------------------
outlook_add_in log started
version: 33.0.16.0
-------------------------------------
2019-10-08T15:45:08.813ZI [11644] instrumentation.cc:107:OpenLogFileInDirectory Logging to C:\Users\usuario\AppData\Local\Google\DriveFS\Logs\outlook_add_in.txt
2019-10-08T15:45:08.814ZE [16236] shell_ipc_client.cc:87:Connect Can't connect to socket at: \\.\Pipe\GoogleDriveFSPipe_usuario_shell
2019-10-08T15:45:08.815ZI [13768] connect.cc:1089:Initialize Failed to do GetLocale UNKNOWN_STATUS.
2019-10-08T15:45:08.815ZI [13768] connect.cc:526:OnConnection Starting outlook Add-In ...
2019-10-08T15:45:08.822ZI [13768] connect.cc:455:RecordOutlookVersion Outlook version: 16.0.0.4266.
2019-10-08T15:45:08.822ZE [16236] shell_ipc_client.cc:87:Connect Can't connect to socket at: \\.\Pipe\GoogleDriveFSPipe_usuario_shell
2019-10-08T15:45:08.822ZE [13768] connect.cc:468:RecordOutlookVersion Failed to record Outlook version, status: UNKNOWN_STATUS.
2019-10-08T15:45:08.822ZE [16236] shell_ipc_client.cc:87:Connect Can't connect to socket at: \\.\Pipe\GoogleDriveFSPipe_usuario_shell
2019-10-08T15:45:08.822ZE [13768] connect.cc:397:MaybeShowOnboarding Failed to display onboarding window UNKNOWN_STATUS
