-------------------------------------
parent log started
version: 33.0.16.0
-------------------------------------
2019-09-23T13:29:12.183ZI [5604] instrumentation.cc:107:OpenLogFileInDirectory Logging to C:\Users\usuario\AppData\Local\Google\DriveFS\Logs\parent.txt
2019-09-23T13:29:12.187ZI [5828] drive_fs_main.cc:105:LogExistingCrashReports No existing crash reports found.
