-------------------------------------
parent log started
version: 33.0.16.0
-------------------------------------
2019-09-26T13:41:43.359ZI [2464] instrumentation.cc:107:OpenLogFileInDirectory Logging to C:\Users\usuario\AppData\Local\Google\DriveFS\Logs\parent.txt
2019-09-26T13:41:43.362ZI [5524] drive_fs_main.cc:105:LogExistingCrashReports No existing crash reports found.
