[
    {
        "fuente": "Caracterización",
        "anexo_mostrar": "RAA-CRT-001 Caracterización Proceso Recursos de Apoyo Académico - ARCA",
        "anexo": "./assets/data/8_Recursos de Apoyo Académico/Caracterización/RAA-CRT-001 Caracterización Proceso Recursos de Apoyo Académico - ARCA.pdf",
        "fuente_hijos": []
    },
    {
        "fuente": "Procedimientos",
        "fuente_hijos": [
            {
                "hijo_nombre": "RAA-PRO-002 Procedimiento para la elaboración de certificados",
                "anexo": "./assets/data/8_Recursos de Apoyo Académico/Procedimientos/RAA-PRO-002 Procedimiento para la elaboración de certificados.pdf",
                "formatos": [
                    {
                        "hijo_nombre": "RAA-FOR-001 Formato solicitud de certificados",
                        "anexo": "./assets/data/8_Recursos de Apoyo Académico/Formatos/RAA-FOR-001 Formato solicitud de certificadoss.pdf"
                    }
                ]
            },
            {
                "hijo_nombre": "RAA-PRO-003 Procedimiento para la elaboración de paz y salvos",
                "anexo": "./assets/data/8_Recursos de Apoyo Académico/Procedimientos/RAA-PRO-003 Procedimiento para la elaboración de paz y salvos.pdf",
                "formatos": []
            },
            {
                "hijo_nombre": "RAA-PRO-004 Procedimiento para el reingreso de estudiantes inactivos",
                "anexo": "./assets/data/8_Recursos de Apoyo Académico/Procedimientos/RAA-PRO-004 Procedimiento para el reingreso de estudiantes inactivos.pdf",
                "formatos": []
            }
        ]
    },
    {
        "fuente": "Instructivos",
        "fuente_hijos": [
            {
                "hijo_nombre": "RAA-INS-001 Instructivo para matrícula de estudiantes y admitidos",
                "anexo": "./assets/data/8_Recursos de Apoyo Académico/Instructivos/RAA-INS-001 Instructivo para matrícula de estudiantes y admitidos.pdf",
                "formatos": []
            },
            {
                "hijo_nombre": "RAA-INS-002 Instructivo para realizar adiciones y cancelaciones",
                "anexo": "./assets/data/8_Recursos de Apoyo Académico/Instructivos/RAA-INS-002 Instructivo para realizar adiciones y cancelaciones.pdf",
                "formatos": []
            }
        ]
    },
    {
        "fuente": "Formatos",
        "fuente_hijos": [
            {
                "hijo_nombre": "RAA-FOR-001 Formato solicitud de certificados",
                "anexo": "./assets/data/8_Recursos de Apoyo Académico/Formatos/RAA-FOR-001 Formato solicitud de certificados.pdf"
            }
        ]
    },
    {
        "fuente": "Indicadores",
        "fuente_hijos": [],
        "anios": [
            "2014",
            "2015",
            "2016",
            "2017",
            "2018"
        ],
        "indicadores": []
    },
    {
        "fuente": "Matriz de Riesgos",
        "fuente_hijos": [
            {
                "hijo_nombre": "GCA-FOR-014 - Matriz de Riesgos Recursos de Apoyo Académico - ARCA",
                "anexo": "./assets/data/8_Recursos de Apoyo Académico/Caracterización/GCA-FOR-014 - Matriz de Riesgos Recursos de Apoyo Académico - ARCA.pdf"
            },
            {
                "hijo_nombre": "GCA-FOR-014 Matriz de Riesgos Recursos de Apoyo Académico - Biblioteca",
                "anexo": "./assets/data/8_Recursos de Apoyo Académico/Caracterización/GCA-FOR-014 Matriz de Riesgos Recursos de Apoyo Académico - Biblioteca.pdf"
            }
        ]
    },
    {
        "fuente": "Matriz de Comunicaciones",
        "fuente_hijos": [],
        "anexo_mostrar": [
            "RAA-MAT-002 Matriz de comunicaciones Recursos de Apoyo Académico - ARCA"
        ],
        "anexo": "./assets/data/8_Recursos de Apoyo Académico/Caracterización/RAA-MAT-002 Matriz de comunicaciones Recursos de Apoyo Académico - ARCA.pdf"
    },
    {
        "fuente": "Matriz de Indicadores",
        "fuente_hijos": [],
        "anexo_mostrar": [
            "RAA-MAT-001 Indicadores del proceso Recursos de Apoyo Académico ARCA"
        ],
        "anexo": "./assets/data/8_Recursos de Apoyo Académico/Caracterización/RAA-MAT-001 Indicadores del proceso Recursos de Apoyo Académico ARCA.pdf"
    }
]