{
    "_nombre caracterizacion": [
        "PS-CRT-001 Caracterización de procesos de Proyección Social"
    ],
    "_ruta caracterizacion": [
        "5_Proyeccion Social/Caracterizacion/PS-CRT-001 Caracterizacion de procesos de Proyeccion Social.pdf"
    ],
    "_procedimientos": [
        {
            "nombre_procedimiento": "PS-PRO-001 Procedimiento para la adquisición y legalización de convenios y_o contratos de asesoría y consultoría - desarrollo social",
            "formato_asociado": [
                {
                    "nombre_formato_asociado": "PS-FOR-008 Presentación de convenios y proyectos de asesoría y consultoría - desarrollo social",
                    "ruta_procedimiento_asociado": "5_Proyeccion Social/Formatos/PS-FOR-008 Presentacion de convenios y_o proyectos de asesoria - desarrollo social.pdf"
                }
            ],
            "ruta_procedimiento": "5_Proyeccion Social/Procedimientos/PS-PRO-001 Procedimiento para la adquisicion y legalizacion de convenios y_o contratos de asesoria y consultoria - desarrollo social.pdf"
        },
        {
            "nombre_procedimiento": "PS-PRO-002 Procedimiento para la planeación y ejecución de convenios y_o contratos de asesoría y consultoría - desarrollo social",
            "formato_asociado": [],
            "ruta_procedimiento": "5_Proyeccion Social/Procedimientos/PS-PRO-002 Procedimiento para la planeacion y ejecucion de convenios y_o contratos de asesoria y consultoria - desarrollo social.pdf"
        },
        {
            "nombre_procedimiento": "PS-PRO-003 Procedimiento para la Gestión de Graduados",
            "formato_asociado": [
                {
                    "nombre_formato_asociado": "PS-FOR-002 Instrumento de empleabilidad para graduado",
                    "ruta_procedimiento_asociado": "5_Proyeccion Social/Formatos/PS-FOR-002 Instrumento de empleabilidad para graduado.pdf"
                },
                {
                    "nombre_formato_asociado": "PS-FOR-003 Instrumento de empleabilidad para empleador",
                    "ruta_procedimiento_asociado": "5_Proyeccion Social/Formatos/PS-FOR-003 Instrumento de empleabilidad para empleador.pdf"
                },
                {
                    "nombre_formato_asociado": "PS-FOR-004 Registro de asistencia OG",
                    "ruta_procedimiento_asociado": "5_Proyeccion Social/Formatos/PS-FOR-004 Registro de asistencia OG.pdf"
                },
                {
                    "nombre_formato_asociado": "PS-FOR-005 Instrumento de salida",
                    "ruta_procedimiento_asociado": "5_Proyeccion Social/Formatos/PS-FOR-005 Instrumento de salida.pdf"
                }
            ],
            "ruta_procedimiento": "5_Proyeccion Social/Procedimientos/PS-PRO-003 Procedimiento para la Gestion de Graduados.pdf"
        },
        {
            "nombre_procedimiento": "PS-PRO-004 Procedimiento para la pre e incubación de empresas",
            "formato_asociado": [
                {
                    "nombre_formato_asociado": "PS-FOR-017 Formato de evaluación de satisfacción preincubación",
                    "ruta_procedimiento_asociado": "5_Proyeccion Social/Formatos/PS-FOR-017 Formato de evaluacion de satisfaccion preincubacion.pdf"
                },
                {
                    "nombre_formato_asociado": "PS-FOR-018 Formato de evaluación de satisfacción Incubación",
                    "ruta_procedimiento_asociado": "5_Proyeccion Social/Formatos/PS-FOR-018 Formato de evaluacion de satisfaccion Incubacion.pdf"
                }
            ],
            "ruta_procedimiento": "5_Proyeccion Social/Procedimientos/PS-PRO-004 Procedimiento para la pre e incubacion de empresas.pdf"
        },
        {
            "nombre_procedimiento": "PS-PRO-005 Procedimiento para la oferta y ejecución de programas de educación continuada",
            "formato_asociado": [
                {
                    "nombre_formato_asociado": "PS-FOR-009 Propuesta de formación",
                    "ruta_procedimiento_asociado": "5_Proyeccion Social/Formatos/PS-FOR-009 Propuesta de formacion.pdf"
                },
                {
                    "nombre_formato_asociado": "PS-FOR-010 Evaluación del proceso de formación",
                    "ruta_procedimiento_asociado": "5_Proyeccion Social/Formatos/PS-FOR-010 Evaluacion del proceso de formacion.pdf"
                }
            ],
            "ruta_procedimiento": "5_Proyeccion Social/Procedimientos/PS-PRO-005 Procedimiento para la oferta y ejecucion de programas de educacion continuada.pdf"
        },
        {
            "nombre_procedimiento": "PS-PRO-006 Procedimiento para la gestión de prácticas sociales estudiantiles",
            "formato_asociado": [
                {
                    "nombre_formato_asociado": "PS-FOR-011 Acta de compromiso ético",
                    "ruta_procedimiento_asociado": "5_Proyeccion Social/Formatos/PS-FOR-011 Acta de compromiso etico.pdf"
                },
                {
                    "nombre_formato_asociado": "PS-FOR-012 Acta de acompañamiento",
                    "ruta_procedimiento_asociado": "5_Proyeccion Social/Formatos/PS-FOR-012 Acta de acompañamiento.pdf"
                },
                {
                    "nombre_formato_asociado": "PS-FOR-013 Plan de trabajo prácticas estudiantiles",
                    "ruta_procedimiento_asociado": "5_Proyeccion Social/Formatos/PS-FOR-013 Plan de trabajo practicas estudiantiles.pdf"
                },
                {
                    "nombre_formato_asociado": "PS-FOR-014 Evaluación de la práctica por parte de la empresa",
                    "ruta_procedimiento_asociado": "5_Proyeccion Social/Formatos/PS-FOR-014 Evaluacion de la practica por parte de la empresa.pdf"
                },
                {
                    "nombre_formato_asociado": "PS-FOR-015 Informe final de prácticas estudiantiles",
                    "ruta_procedimiento_asociado": "5_Proyeccion Social/Formatos/PS-FOR-015 Informe final de practicas estudiantiles.pdf"
                },
                {
                    "nombre_formato_asociado": "PS-FOR-016 Evaluación de tutores de práctica",
                    "ruta_procedimiento_asociado": "5_Proyeccion Social/Formatos/PS-FOR-016 Evaluacion de tutores de practica.pdf"
                }
            ],
            "ruta_procedimiento": "5_Proyeccion Social/Procedimientos/PS-PRO-006 Procedimiento para la gestion de practicas sociales estudiantiles.pdf"
        },
        {
            "nombre_procedimiento": "PS-PRO-007 Procedimiento de Intermediación Laboral",
            "formato_asociado": [],
            "ruta_procedimiento": "5_Proyeccion Social/Procedimientos/PS-PRO-007 Procedimiento de Intermediacion Laboral.pdf"
        }
    ],
    "_instructivo": [
        {
            "nombre_instructivo": "PS-IT-001 Instructivo para Carnetización",
            "formato_asociado": [],
            "ruta_instructivo": "5_Proyeccion Social/Instructivos/PS-IT-001 Instructivo para Carnetizacion.pdf"
        },
        {
            "nombre_instructivo": "PS-IT-002 Instructivo para la Administración del Portal de Empleo",
            "formato_asociado": [],
            "ruta_instructivo": "5_Proyeccion Social/Instructivos/PS-IT-002 Instructivo para la Administracion del Portal de Empleo.pdf"
        },
        {
            "nombre_instructivo": "PS-IT-003 Instructivo para la pre e inscripción en programas de educación continuada",
            "formato_asociado": [],
            "ruta_instructivo": "5_Proyeccion Social/Instructivos/PS-IT-003 Instructivo para la pre e inscripcion en programas de educacion continuada.pdf"
        }
    ],
    "_formato asociado instructivo ruta": [],
    "_lista formatos nombre": [
        "PS-FOR-002 Instrumento de empleabilidad para graduado",
        "PS-FOR-003 Instrumento de empleabilidad para empleador",
        "PS-FOR-004 Registro de asistencia OG",
        "PS-FOR-005 Instrumento de salida",
        "PS-FOR-008 Presentación de convenios y proyectos de asesoría y consultoría - desarrollo social",
        "PS-FOR-009 Propuesta de formación",
        "PS-FOR-010 Evaluación del proceso de formación",
        "PS-FOR-011 Acta de compromiso ético",
        "PS-FOR-012 Acta de acompañamiento",
        "PS-FOR-013 Plan de trabajo prácticas estudiantiles",
        "PS-FOR-014 Evaluación de la práctica por parte de la empresa",
        "PS-FOR-015 Informe final de prácticas estudiantiles",
        "PS-FOR-016 Evaluación de tutores de práctica"
    ],
    "_lista iformatos ruta": [
        "5_Proyeccion Social/Formatos/PS-FOR-002 Instrumento de empleabilidad para graduado.pdf",
        "5_Proyeccion Social/Formatos/PS-FOR-003 Instrumento de empleabilidad para empleador.pdf",
        "5_Proyeccion Social/Formatos/PS-FOR-004 Registro de asistencia OG.pdf",
        "5_Proyeccion Social/Formatos/PS-FOR-005 Instrumento de salida.pdf",
        "5_Proyeccion Social/Formatos/PS-FOR-008 Presentacion de convenios y_o proyectos de asesoria - desarrollo social.pdf",
        "5_Proyeccion Social/Formatos/PS-FOR-009 Propuesta de formacion.pdf",
        "5_Proyeccion Social/Formatos/PS-FOR-010 Evaluacion del proceso de formacion.pdf",
        "5_Proyeccion Social/Formatos/PS-FOR-011 Acta de compromiso etico.pdf",
        "5_Proyeccion Social/Formatos/PS-FOR-012 Acta de acompañamiento.pdf",
        "5_Proyeccion Social/Formatos/PS-FOR-013 Plan de trabajo practicas estudiantiles.pdf",
        "5_Proyeccion Social/Formatos/PS-FOR-014 Evaluacion de la practica por parte de la empresa.pdf",
        "5_Proyeccion Social/Formatos/PS-FOR-015 Informe final de practicas estudiantiles.pdf",
        "5_Proyeccion Social/Formatos/PS-FOR-016 Evaluacion de tutores de practica.pdf"
    ],
    "_indicadores proyeccion social nombre": [
        "PS-FOR-006 Indicadores del proceso Proyección Social"
    ],
    "_indicadores proyección social ruta": [
        "5_Proyeccion Social/Caracterizacion/PS-FOR-006 Indicadores del proceso Proyeccion Social.pdf"
    ],
    "_matriz comunicaciones nombre": [
        "PS-FOR-007 Matriz de comunicaciones Proyección Social"
    ],
    "_matriz comunicaicones ruta": [
        "5_Proyeccion Social/Caracterizacion/PS-FOR-007 Matriz de comunicaciones Proyeccion Social.pdf"
    ],
    "_matriz riesgo nombre": [
        "PS-FOR-019 Matriz de Riesgos Proyección Social"
    ],
    "_matriz riesgo ruta": [
        "5_Proyeccion Social/Caracterizacion/PS-FOR-019 Matriz de Riesgos Proyeccion Social.pdf"
    ],
    "_Registro de indicadores": [
        {
            "nombre_indicador": "Contratos/convenios de asesoría y consultoría",
            "aMedicionUnica": [
                "Contratos/convenios de asesoría y consultoría",
                18,
                15,
                15,
                13,
                4
            ],
            "aMediciones": []
        },
        {
            "nombre_indicador": "Entidades beneficiadas en asesoría y consultoría",
            "aMedicionUnica": [
                "Entidades beneficiadas en asesoría y consultoría",
                16,
                12,
                13,
                10,
                4
            ],
            "aMediciones": []
        },
        {
            "nombre_indicador": "Valor contratado en asesoría y consultoría",
            "aMedicionUnica": [
                "Valor contratado en asesoría y consultoría",
                753200556,
                942486210,
                2489512017,
                1038801887,
                476945240
            ],
            "aMediciones": []
        },
        {
            "nombre_indicador": "Contratos/convenios de desarrollo social",
            "aMedicionUnica": [
                "Contratos/convenios de desarrollo social",
                10,
                13,
                11,
                16,
                7
            ],
            "aMediciones": []
        },
        {
            "nombre_indicador": "Entidades beneficiadas desarrollo social",
            "aMedicionUnica": [
                "Entidades beneficiadas desarrollo social",
                49,
                119,
                103,
                116,
                165
            ],
            "aMediciones": []
        },
        {
            "nombre_indicador": "Población beneficiada desarrollo social",
            "aMedicionUnica": [
                "Población beneficiada desarrollo social",
                5231,
                7469,
                7741,
                57199,
                49000
            ],
            "aMediciones": []
        },
        {
            "nombre_indicador": "Contratos/convenios de educación continuada",
            "aMedicionUnica": [
                "Contratos/convenios de educación continuada",
                9,
                5,
                4,
                8,
                2
            ],
            "aMediciones": []
        },
        {
            "nombre_indicador": "Entidades beneficiadas educación continuada",
            "aMedicionUnica": [
                "Entidades beneficiadas educación continuada",
                49,
                112,
                135,
                133,
                164
            ],
            "aMediciones": []
        },
        {
            "nombre_indicador": "Ingresos de educación continuada",
            "aMedicionUnica": [
                "Ingresos de educación continuada",
                315038861,
                266000000,
                121290000,
                3531445950,
                521865343
            ],
            "aMediciones": []
        },
        {
            "nombre_indicador": "total de prácticas",
            "aMedicionUnica": [
                "total de prácticas",
                1455,
                1660,
                830,
                1409,
                923
            ],
            "aMediciones": []
        },
        {
            "nombre_indicador": "Sensibilización emprendimiento",
            "aMedicionUnica": [
                "Sensibilización emprendimiento",
                9144,
                16794,
                9194,
                9100,
                1443
            ],
            "aMediciones": []
        },
        {
            "nombre_indicador": "Formación de emprendedores",
            "aMedicionUnica": [
                "Formación de emprendedores",
                148,
                5386,
                5140,
                8235,
                3389
            ],
            "aMediciones": []
        },
        {
            "nombre_indicador": "Identificación de ideas (emprendimiento)",
            "aMedicionUnica": [
                "Identificación de ideas (emprendimiento)",
                502,
                3732,
                2592,
                1007,
                495
            ],
            "aMediciones": []
        },
        {
            "nombre_indicador": "Indice de empleabilidad de graduados",
            "aMedicionUnica": [
                "Indice de empleabilidad de graduados",
                0,
                0,
                0,
                0,
                0
            ],
            "aMediciones": []
        },
        {
            "nombre_indicador": "Participación en actividades académicas de graduados",
            "aMedicionUnica": [
                "Participación en actividades académicas de graduados",
                0,
                0,
                0,
                0,
                0
            ],
            "aMediciones": []
        }
    ],
    "aAnios": [
        "2014",
        "2015",
        "2016",
        "2017",
        "2018-I"
    ]
}